<?xml version="1.0" encoding="utf-8"?>
<!-- Generator: Adobe Illustrator 17.0.0, SVG Export Plug-In . SVG Version: 6.00 Build 0)  -->
<!DOCTYPE svg PUBLIC "-//W3C//DTD SVG 1.1//EN" "http://www.w3.org/Graphics/SVG/1.1/DTD/svg11.dtd">
<svg version="1.1" id="Camada_1" xmlns="http://www.w3.org/2000/svg" xmlns:xlink="http://www.w3.org/1999/xlink" x="0px" y="0px"
	 width="35.867px" height="27.083px" viewBox="0 0 35.867 27.083" enable-background="new 0 0 35.867 27.083" xml:space="preserve">
<g>
	<path fill="none" stroke="#FFFFFF" stroke-width="2" stroke-linecap="round" stroke-miterlimit="10" d="M20.104,7.875
		c0,0,3.5,1.438,3.5,5.563c0,4.25-3.5,5.562-3.5,5.562"/>
	<path fill="none" stroke="#FFFFFF" stroke-width="2" stroke-linecap="round" stroke-miterlimit="10" d="M23.335,3.813
		c0,0,6.056,2.487,6.056,9.625c0,7.354-6.056,9.625-6.056,9.625"/>
	<path fill="none" stroke="#FFFFFF" stroke-width="2" stroke-linecap="round" stroke-miterlimit="10" d="M27.041,1
		c0,0,7.826,3.214,7.826,12.438c0,9.503-7.826,12.437-7.826,12.437"/>
	<polygon fill="#FFFFFF" points="17.667,27.083 17.667,0.167 15.814,1.653 8.833,7.25 0,7.333 0,19.5 8.833,19.417 	"/>
</g>
</svg>
