<?xml version="1.0" encoding="utf-8"?>
<!-- Generator: Adobe Illustrator 17.0.0, SVG Export Plug-In . SVG Version: 6.00 Build 0)  -->
<!DOCTYPE svg PUBLIC "-//W3C//DTD SVG 1.1//EN" "http://www.w3.org/Graphics/SVG/1.1/DTD/svg11.dtd">
<svg version="1.1" id="Camada_1" xmlns="http://www.w3.org/2000/svg" xmlns:xlink="http://www.w3.org/1999/xlink" x="0px" y="0px"
	 width="504px" height="504px" viewBox="0 0 504 504" enable-background="new 0 0 504 504" xml:space="preserve">
<g>
	<path fill="#FFFFFF" d="M380.557,72.829c-7.586,0-14.052,0.039-20.518-0.007c-20.694-0.15-36.642-15.824-36.625-35.959
		c0.017-20.141,15.961-35.819,36.694-35.86C395.448,0.933,430.789,0.939,466.13,1c21.283,0.037,36.835,15.547,36.877,36.806
		c0.07,35.341,0.073,70.682-0.001,106.022c-0.044,20.741-15.715,36.722-35.822,36.767c-20.131,0.046-35.853-15.919-35.996-36.587
		c-0.045-6.477-0.007-12.954-0.007-20.548c-2.266,2.1-3.748,3.386-5.132,4.769c-25.928,25.903-51.792,51.869-77.787,77.704
		c-11.127,11.059-25.769,13.64-39.731,7.424c-13.309-5.925-21.438-19.102-21.025-34.158c0.266-9.69,4.477-17.504,11.253-24.254
		c25.701-25.6,51.319-51.284,76.959-76.946C377.108,76.608,378.411,75.128,380.557,72.829z"/>
	<path fill="#FFFFFF" d="M71.922,381.546c2.419-2.301,3.897-3.648,5.31-5.059c25.923-25.908,51.78-51.881,77.779-77.712
		c11.806-11.729,28.624-13.801,42.791-5.666c13.768,7.906,21.201,24.486,16.465,39.913c-1.934,6.3-6.014,12.543-10.661,17.307
		c-25.063,25.702-50.605,50.937-76.005,76.309c-1.436,1.434-3.084,2.655-4.633,3.976c0.189,0.485,0.377,0.97,0.566,1.455
		c6.772,0,13.548-0.165,20.314,0.034c15.004,0.44,26.19,7.35,32.473,20.972c6.3,13.659,4.199,26.694-5.351,38.246
		c-6.649,8.044-15.532,12.445-25.955,12.498c-36.836,0.189-73.675,0.297-110.508-0.025c-18.654-0.163-34.205-16.006-34.327-34.701
		c-0.239-36.648-0.243-73.301,0-109.949c0.127-19.174,16.242-34.678,35.402-34.844c19.493-0.169,35.732,15.207,36.305,34.551
		C72.099,365.944,71.922,373.047,71.922,381.546z"/>
</g>
</svg>
